<?xml version="1.0" encoding="utf-8"?>
<!-- Generator: Adobe Illustrator 22.0.1, SVG Export Plug-In . SVG Version: 6.00 Build 0)  -->
<svg version="1.1" id="Layer_1" xmlns="http://www.w3.org/2000/svg" xmlns:xlink="http://www.w3.org/1999/xlink" x="0px" y="0px"
	 viewBox="0 0 723 723" style="enable-background:new 0 0 723 723;" xml:space="preserve">
<style type="text/css">
	.st0{fill:#2B3885;}
	.st1{enable-background:new    ;}
	.st2{fill:#FFFFFF;}
	.st3{fill:none;stroke:#FFFFFF;stroke-width:6;}
	.blink-arrow1 {
		animation: fadeIn1 2.5s ease infinite;
	}
  .blink-arrow2 {
		animation: fadeIn2 2.5s ease infinite;
	}
	.blink-arrow3 {
		animation: fadeIn3 2.5s ease infinite;
	}
	.blink-arrow4 {
		animation: fadeIn4 2.5s ease infinite;
	}
	@keyframes fadeIn1 {
    0%  {
      opacity: 0;
      transform: translateX(-20px);
    }
    10% {
    	opacity: 0;
    }
    50% {
      opacity: 1;
    }
    90% {
			opcity: 0;
    }
    100% {
      opacity: 0;
    }
  }
	@keyframes fadeIn2 {
    0%  {
      opacity: 0;
      transform: translateY(-20px);
    }
    10% {
    	opacity: 0;
    }
    50% {
      opacity: 1;
    }
    90% {
			opcity: 0;
    }
    100% {
      opacity: 0;
    }
  }
  @keyframes fadeIn3 {
    0%  {
      opacity: 0;
      transform: translateY(20px);
    }
    10% {
    	opacity: 0;
    }
    50% {
      opacity: 1;
    }
    90% {
			opcity: 0;
    }
    100% {
      opacity: 0;
    }
  }
  @keyframes fadeIn4 {
    0%  {
      opacity: 0;
      transform: translateX(20px);
    }
    10% {
    	opacity: 0;
    }
    50% {
      opacity: 1;
    }
    90% {
			opcity: 0;
    }
    100% {
      opacity: 0;
    }
  }
</style>
<g id="Group_93" transform="translate(-599 -155)">
	<circle id="Ellipse_24" class="st0" cx="960.5" cy="516.5" r="361.5"/>
	<g class="st1">
		<path class="st2" d="M875.9,552.6c0,17.8-14.5,32.4-32.4,32.4h-38v-25.8h38c3.6,0,6.6-3,6.6-6.6c0-3.9-3.3-7.3-6.6-7.3h-18.9
			c-6.7,0-12.2-5.5-12.2-12.2c0-3,1.1-5.9,3-8l17.5-20.4H804v-25.8h58.7c6.7,0,12.2,5.5,12.2,12.2c0,3.3-1.3,6.2-3.3,8.5l-19.1,21.2
			C866,525,875.9,537.8,875.9,552.6z"/>
		<path class="st2" d="M1001.5,531.9c0,29.4-23.7,53.1-53.1,53.1h-33.9c-6.7,0-12.2-5.5-12.2-12.2V491c0-6.7,5.2-12.2,11.9-12.2
			h34.2C977.8,478.8,1001.5,502.5,1001.5,531.9z M975.6,531.9c0-15.1-12.2-27.3-27.3-27.3h-20.2v54.5h20.2
			C963.4,559.2,975.6,547,975.6,531.9z"/>
		<path class="st2" d="M1064.9,553H1048v32h-25.8v-93.3c0-7,5.9-12.9,12.9-12.9h42.9c21.1,0,38,16.9,38,38
			c0,16.1-9.8,28.6-23.7,33.7l24.4,34.4h-29.6L1064.9,553z M1048,529h30c6.7,0,12.2-5.5,12.2-12.2c0-6.7-5.5-12.2-12.2-12.2h-30V529
			z"/>
	</g>
	<g transform="matrix(1, 0, 0, 1, 599, 155)">
		<circle id="Ellipse_26-5" class="st2" cx="105.5" cy="106.5" r="55.5"/>
	</g>
	<g class="st1">
		<path d="M691.3,266.3v-7.5c0-3.8,3.1-6.9,6.9-6.9c3.8,0,6.9,3.1,6.9,6.9v7.5c0,3.9-3.1,7-6.9,7
			C694.4,273.3,691.3,270.2,691.3,266.3z M700.1,266.3v-7.5c0-1-0.8-1.9-1.9-1.9c-1,0-1.9,0.8-1.9,1.9v7.5c0,1,0.8,1.9,1.9,1.9
			C699.2,268.2,700.1,267.4,700.1,266.3z"/>
		<path d="M718.7,254.3l0,18.7h-5.1v-14l-2.7,1.6l-2.3-4.6l6.4-3.7c0.5-0.3,0.8-0.4,1.3-0.4C717.7,251.9,718.7,252.9,718.7,254.3z"
			/>
	</g>
	<g transform="matrix(1, 0, 0, 1, 599, 155)">
		<circle id="Ellipse_26-6" class="st2" cx="626.5" cy="106.5" r="55.5"/>
	</g>
	<g class="st1">
		<path d="M1209.9,266.3v-7.5c0-3.8,3.1-6.9,6.9-6.9c3.8,0,6.9,3.1,6.9,6.9v7.5c0,3.9-3.1,7-6.9,7
			C1213,273.3,1209.9,270.2,1209.9,266.3z M1218.8,266.3v-7.5c0-1-0.8-1.9-1.9-1.9c-1,0-1.9,0.8-1.9,1.9v7.5c0,1,0.8,1.9,1.9,1.9
			C1217.9,268.2,1218.8,267.4,1218.8,266.3z"/>
		<path d="M1237,267.9h5.6v5.1h-11.4c-1.3,0-2.4-1.1-2.4-2.4c0-0.6,0.3-1.2,0.6-1.6l7.5-8.6c0.4-0.5,0.6-0.9,0.6-1.4
			c0.1-1-0.8-2-1.9-2c-0.3,0-0.6,0.1-0.8,0.2l-4.6,2.3l-2.3-4.5l4.5-2.3c1-0.5,2-0.8,3.2-0.8c3.9,0,7.1,3.2,7.1,7.1
			c0,1.9-0.8,3.5-2.1,5L1237,267.9z"/>
	</g>
	<g transform="matrix(1, 0, 0, 1, 599, 155)">
		<circle id="Ellipse_26-7" class="st2" cx="626.5" cy="625.5" r="55.5"/>
	</g>
	<g class="st1">
		<path d="M1209.7,785.3v-7.5c0-3.8,3.1-6.9,6.9-6.9c3.8,0,6.9,3.1,6.9,6.9v7.5c0,3.9-3.1,7-6.9,7
			C1212.8,792.3,1209.7,789.2,1209.7,785.3z M1218.5,785.3v-7.5c0-1-0.8-1.9-1.9-1.9c-1,0-1.9,0.8-1.9,1.9v7.5c0,1,0.8,1.9,1.9,1.9
			C1217.7,787.2,1218.5,786.4,1218.5,785.3z"/>
		<path d="M1242.9,785.6c0,3.5-2.8,6.4-6.4,6.4h-7.5v-5.1h7.5c0.7,0,1.3-0.6,1.3-1.3c0-0.8-0.6-1.4-1.3-1.4h-3.7
			c-1.3,0-2.4-1.1-2.4-2.4c0-0.6,0.2-1.2,0.6-1.6l3.4-4h-5.7v-5.1h11.5c1.3,0,2.4,1.1,2.4,2.4c0,0.6-0.3,1.2-0.6,1.7l-3.7,4.2
			C1240.9,780.2,1242.9,782.7,1242.9,785.6z"/>
	</g>
	<g transform="matrix(1, 0, 0, 1, 599, 155)">
		<circle id="Ellipse_26-8" class="st2" cx="105.5" cy="625.5" r="55.5"/>
	</g>
	<g class="st1">
		<path d="M689.4,785.3v-7.5c0-3.8,3.1-6.9,6.9-6.9c3.8,0,6.9,3.1,6.9,6.9v7.5c0,3.9-3.1,7-6.9,7
			C692.5,792.3,689.4,789.2,689.4,785.3z M698.2,785.3v-7.5c0-1-0.8-1.9-1.9-1.9c-1,0-1.9,0.8-1.9,1.9v7.5c0,1,0.8,1.9,1.9,1.9
			C697.3,787.2,698.2,786.4,698.2,785.3z"/>
		<path d="M721.2,786.7h-2v5.3h-5.1v-5.3H708c-1.3,0-2.4-1.1-2.4-2.4c0-0.3,0.1-0.6,0.2-0.9l3.4-7.5h5v-4.8h5.1v10.6h2V786.7z
			 M714.1,781.8V777l-2.1,4.7H714.1z"/>
	</g>
	<g class="st1">
		<path class="st2" d="M827.8,417.8v22.3h-3.4v-9.5h-10.9v9.5h-3.4v-22.3h3.4v9.5h10.9v-9.5H827.8z"/>
		<path class="st2" d="M840.6,436.8c-2-2.1-3-4.9-3-7.9c0-3,1.1-5.7,3-7.9c2-2.1,4.8-3.2,7.6-3.2s5.5,1.2,7.6,3.2
			c2,2.2,3.1,4.9,3.1,7.9c0,3-1.1,5.8-3.1,7.9c-2,2.2-4.7,3.4-7.6,3.4S842.6,438.9,840.6,436.8z M840.9,428.9c0,4.4,3.2,7.9,7.3,7.9
			c4,0,7.3-3.5,7.3-7.9c0-4.3-3.3-7.8-7.3-7.8C844.2,421.1,840.9,424.5,840.9,428.9z"/>
		<path class="st2" d="M899.2,417.9l-8,22.1h-3.6l-4.9-13.7l-4.9,13.7h-3.6l-8-22.1h3.6l6.2,17.2l5-13.7h3.5l4.9,13.7l6.2-17.2
			H899.2z"/>
		<path class="st2" d="M950.1,417.9l-8,22.1h-3.6l-4.9-13.7l-4.9,13.7h-3.6l-8-22.1h3.6l6.2,17.2l5-13.7h3.5l4.9,13.7l6.2-17.2
			H950.1z"/>
		<path class="st2" d="M961.9,421.1v5.6h10.7v3.4h-10.7v6.6h12v3.4h-15.4v-3.4v-6.6v-3.4v-5.6v-3.4h3.4h12v3.4H961.9z"/>
		<path class="st2" d="M1027.4,417.9l-8,22.1h-3.6l-4.9-13.7L1006,440h-3.6l-8-22.1h3.6l6.2,17.2l5-13.7h3.5l4.9,13.7l6.2-17.2
			H1027.4z"/>
		<path class="st2" d="M1036.9,436.8c-2-2.1-3-4.9-3-7.9c0-3,1.1-5.7,3-7.9c2-2.1,4.8-3.2,7.6-3.2c2.9,0,5.5,1.2,7.6,3.2
			c2,2.2,3.1,4.9,3.1,7.9c0,3-1.1,5.8-3.1,7.9c-2,2.2-4.7,3.4-7.6,3.4C1041.6,440.1,1038.9,438.9,1036.9,436.8z M1037.2,428.9
			c0,4.4,3.2,7.9,7.3,7.9s7.3-3.5,7.3-7.9c0-4.3-3.3-7.8-7.3-7.8S1037.2,424.5,1037.2,428.9z"/>
		<path class="st2" d="M1067.5,440h-3.4v-22.2h3.9c4.8,0,7.3,1.5,8.7,2.7c1.3,1.3,2.1,3,2.1,4.8c-0.1,2.4-1.5,4.5-4,5.9
			c-0.1,0.1-0.1,0.1-0.2,0.1l7.2,8.6h-4.4l-6.2-7.3c-1.2,0.3-2.5,0.4-3.8,0.5V440z M1067.5,429.9c2-0.1,4-0.6,5.5-1.5
			c2.7-1.6,3-3.6,1.3-5.4c-1.3-1.3-4-2-6.8-1.8V429.9z"/>
		<path class="st2" d="M1091.6,440v-22.1h3.4V428l10.1-10.1h4.8l-10.7,10.6l12.3,11.4l-0.1,0.1h-4.8l-9.7-9.1l-1.8,1.8v7.3H1091.6z"
			/>
	</g>
	<g transform="matrix(1, 0, 0, 1, 599, 155)">
		<path id="Union_1-2" class="st3 blink-arrow1" d="M367.2,78.9l1,1L367.2,78.9l-13.9,13.9L367.2,78.9L353.3,65L367.2,78.9l1-1L367.2,78.9z"/>
	</g>
	<g transform="matrix(1, 0, 0, 1, 599, 155)">
		<path id="Union_3-2" class="st3 blink-arrow2" d="M643.8,367.4l-1,1L643.8,367.4l-13.9-13.9L643.8,367.4l13.9-13.9L643.8,367.4l1,1L643.8,367.4
			z"/>
	</g>
	<g transform="matrix(1, 0, 0, 1, 599, 155)">
		<path id="Union_4-2" class="st3 blink-arrow3" d="M77.8,354.5l1-1L77.8,354.5l13.9,13.9L77.8,354.5l-13.9,13.9L77.8,354.5l-1-1L77.8,354.5z"/>
	</g>
	<g transform="matrix(1, 0, 0, 1, 599, 155)">
		<path id="Union_2-2" class="st3 blink-arrow4" d="M354.3,643l-1-1L354.3,643l13.9-13.9L354.3,643l13.9,13.9L354.3,643l-1,1L354.3,643z"/>
	</g>
</g>
</svg>
